"user";"loginf8"
"2234055";"40158"
"5582540";"33535"
"9537347";"131425"
"29953687";"123371"
"30311529";"131025"
"49147099";"93006"
"57781476";"62243"
"95480436";"98824"
"113278478";"98163"
"113340018";"126442"
"118877318";"80068"
"126407630";"80606"
"193241158";"131237"
"225306042";"111675"
"239545318";"41074"
"269162698";"43029"
"292177553";"76549"
"303219830";"78884"
"347674177";"35590"
"370316883";"131605"
"391332699";"118327"
"396967637";"46989"
"405006910";"46365"
"410623491";"81038"
"412390499";"128383"
"430684542";"80036"
"446134501";"78406"
"457670273";"35590"
"481162508";"80126"
"503814224";"130398"
"505107159";"34731"
"522270150";"123973"
"525353226";"130874"
"585710016";"56949"
"647737988";"78066"
"681402768";"80962"
"701316120";"80884"
"727062155";"78704"
"742626207";"64150"
"745034189";"129034"
"783478296";"100874"
"802859337";"43749"
"807459218";"79649"
"817644371";"100233"
"825684195";"652710"
"829413940";"79767"
"847335203";"111675"
"877774200";"123748"
"906161427";"90334"
"920391080";"49419"
"941029467";"90334"
"956141723";"37112"
"976943781";"36005"
"1012858694";"51888"
"1018821929";"123"
"1023587362";"79979"
"1046610197";"131847"
"1064583338";"35590"
"1123888074";"14892"
"1124144328";"92331"
"1130952047";"44735"
"1134749816";"81327"
"1147786200";"41074"
"1155328430";"98824"
"1183149315";"46792"
"1188640830";"106779"
"1188876777";"35040"
"1203815618";"81454"
"1204770065";"124164"
"1207403002";"78889"
"1226486029";"57905"
"1233300858";"124131"
"1237735955";"115906"
"1246462732";"90334"
"1293504616";"114837"
"1297575765";"123"
"1308261712";"90940"
"1318886196";"52704"
"1328968854";"115657"
"1329630506";"78704"
"1341113338";"131425"
"1343423195";"40195"
"1346046517";"123748"
"1383060013";"131425"
"1402714581";"80173"
"1419744380";"115657"
"1433394514";"131425"
"1450071338";"126158"
"1468596786";"35590"
"1470400379";"128092"
"1485301185";"80376"
"1552876478";"98825"
"1558242484";"123471"
"1570565232";"118327"
"1598459595";"128383"
"1605500801";"40409"
"1632159562";"78968"
"1654653925";"81216"
"1659086489";"37873"
"1664611059";"130648"
"1675953090";"110789"
"1689999927";"111837"
"1699228962";"41074"
"1709416038";"125605"
"1720969845";"80586"
"1775922374";"131595"
"1796536649";"80036"
"1802954367";"113915"
"1803110158";"92331"
"1803988951";"98913"
"1809878959";"131425"
"1826776210";"128066"
"1859114189";"98921"
"1879671805";"3521"
"1910537850";"130379"
"1934422020";"130685"
"1941554613";"123477"
"1998219858";"32950"
"2033534375";"123"
"2049306185";"80013"
"2073862666";"80586"
"2119844235";"90334"
"2124454531";"131825"
"2136034950";"35590"
"2137863024";"90334"
"2140747547";"130610"
