"log_id";"user";"adifficulty";"appreciation";"tedious";"precision1";"badimage";"daltonisme";"otherhesitation";"interest";"comments";"solveproblems";"details";"meticulous";"validationcode";"timestamp";"time";"cdifficulty";"edifficulty";"gdifficulty"
"1";"1329630506";"2";"2";"0";"0";"1";"0";;"1";;"0";"0";"0";"5556554852";"1626094866503";"376844";"1";"2";"2"
"2";"1237735955";"3";"1";"0";"1";"0";"0";;"3";;"1";"1";"1";"98110102";"1626095017529";"608746";"0";"1";"0"
"3";"647737988";"3";"2";"0";"1";"1";"0";;"4";;"0";"0";"0";"5556485454";"1626094810893";"962809";"0";"1";"0"
"4";"1802954367";"3";"2";"0";"1";"0";"0";;"2";;"1";"1";"1";"98108102";"1626095086862";"798621";"1";"3";"2"
"5";"1879671805";"1";"1";"0";"1";"0";"0";;"2";;"1";"1";"1";"51535049";"1626095141531";"757764";"0";"1";"1"
"7";"5582540";"2";"1";"0";"1";"0";"0";;"3";;"0";"1";"1";"5151535153";"1626094831516";"1136121";"1";"3";"2"
"8";"1689999927";"3";"1";"0";"1";"0";"0";;"4";;"1";"1";"1";"98105106";"1626094756762";"1251885";"1";"3";"1"
"9";"1910537850";"3";"2";"1";"1";"1";"0";;"4";;"1";"2";"2";"10099112";"1626095323189";"719423";"1";"4";"0"
"10";"1934422020";"3";"4";"0";"0";"0";"0";;"3";;"1";"1";"2";"100102109";"1626095042754";"1054003";"1";"3";"0"
"11";"1709416038";"1";"2";"0";"1";"1";"0";;"2";;"1";"1";"1";"99107101";"1626094919556";"1181355";"1";"3";"1"
"12";"1012858694";"2";"1";"0";"0";"1";"0";;"4";;"1";"1";"1";"5349565656";"1626095228482";"894030";"1";"3";"1"
"13";"57781476";"3";"0";"0";"1";"0";"0";;"2";;"1";"1";"1";"5450505251";"1626095550293";"750081";"3";"3";"3"
"14";"1570565232";"4";"0";"0";"1";"1";"0";;"3";;"0";"1";"2";"98107105";"1626095681852";"744484";"0";"3";"2"
"15";"745034189";"2";"1";"0";"1";"0";"0";;"2";;"0";"1";"1";"99105103";"1626095637695";"836171";"1";"3";"0"
"16";"1023587362";"2";"2";"0";"0";"1";"0";;"2";;"1";"1";"1";"5557575557";"1626095552652";"1080685";"1";"1";"1"
"17";"503814224";"3";"1";"1";"1";"0";"0";;"4";;"3";"1";"2";"10099113";"1626095417216";"1266552";"2";"2";"2"
"18";"113278478";"3";"1";"0";"1";"0";"0";;"4";;"0";"0";"0";"5756495451";"1626095797839";"906946";"1";"3";"0"
"19";"1188640830";"2";"2";"1";"0";"1";"0";;"3";"TROP LONG ET REPETITIF  ET J AJOUTERAIS  BOURRAGE DE CRANE";"1";"1";"1";"97109112";"1626095414453";"1302835";"2";"2";"2"
"20";"1046610197";"2";"2";"0";"1";"1";"0";;"2";;"0";"0";"1";"100105107";"1626095241336";"1851059";"1";"2";"1"
"21";"1203815618";"3";"1";"0";"0";"0";"0";;"2";;"0";"3";"1";"5649525352";"1626095578332";"1561252";"2";"3";"2"
"22";"1941554613";"3";"1";"0";"0";"0";"0";"je connias pas trop le nom des oiseaux a la base";"4";;"1";"1";"1";"99103110";"1626096683882";"1182083";"2";"1";"2"
"23";"1318886196";"2";"2";"0";"1";"0";"0";;"3";;"2";"2";"2";"5350554852";"1626094960511";"3290442";"1";"2";"1"
"24";"405006910";"2";"1";"0";"1";"0";"0";;"3";;"0";"0";"0";"5254515453";"1626098041431";"526553";"1";"1";"0"
"25";"1552876478";"2";"1";"0";"1";"0";"0";;"2";;"0";"1";"0";"5756565053";"1626098817184";"491008";"0";"0";"2"
"27";"1293504616";"1";"3";"0";"1";"0";"0";;"3";;"0";"0";"0";"98108106";"1626098881262";"536549";"1";"1";"1"
"28";"1188876777";"3";"3";"0";"1";"0";"0";;"2";;"1";"1";"1";"5153485248";"1626098943761";"844350";"1";"1";"0"
"29";"2140747547";"3";"0";"0";"1";"0";"0";;"4";;"0";"2";"1";"10010297";"1626098718529";"1200438";"0";"2";"1"
"30";"1632159562";"3";"1";"0";"1";"0";"0";;"3";;"1";"2";"1";"5556575456";"1626098727972";"1267328";"2";"4";"1"
"31";"303219830";"1";"2";"0";"1";"0";"0";;"3";;"0";"0";"0";"5556565652";"1626099341691";"835072";"0";"2";"1"
"32";"193241158";"4";"0";"0";"1";"0";"0";;"4";;"0";"2";"2";"10099106";"1626098802125";"2017827";"2";"4";"1"
"33";"802859337";"3";"1";"0";"0";"1";"0";;"3";;"0";"2";"2";"5251555257";"1626102697700";"807464";"2";"3";"1"
"34";"505107159";"2";"1";"0";"1";"1";"0";;"2";;"1";"2";"2";"5152555149";"1626102671417";"894729";"1";"2";"1"
"35";"681402768";"1";"3";"0";"1";"0";"0";;"2";;"0";"2";"2";"5648575450";"1626103246632";"528532";"2";"2";"2"
"36";"370316883";"1";"1";"0";"0";"0";"0";"Parce que je ne connais pas les espèces présentées.";"3";"Au bout d'un moment, j'essayer de procéder par élimination car certaines images  m'ont montré d'autres variantes notamment pour les corbeau freux et grand corbeaux. Je ne sais pas si j'ai juste mais j'ai répondu ce qui m'a semblé logique.";"2";"0";"0";"100103101";"1626102653817";"1207907";"1";"1";"1"
"37";"1775922374";"2";"1";"0";"1";"0";"0";;"2";;"0";"1";"1";"100102110";"1626103038994";"1169948";"2";"3";"2"
"38";"1308261712";"2";"1";"0";"1";"0";"0";;"2";;"0";"0";"0";"5748575248";"1626103222771";"1115189";"2";"2";"1"
"39";"829413940";"4";"1";"0";"1";"0";"0";;"2";;"0";"1";"1";"5557555455";"1626103463111";"1100537";"2";"3";"1"
"40";"1605500801";"3";"1";"1";"1";"0";"0";;"2";;"1";"0";"0";"5248524857";"1626103261613";"1393946";"0";"3";"1"
"41";"446134501";"2";"2";"1";"0";"0";"0";;"2";;"1";"1";"1";"5556524854";"1626103788927";"1129249";"2";"2";"2"
"42";"2234055";"3";"1";"0";"1";"0";"0";;"3";;"1";"1";"1";"5248495356";"1626104032871";"1099309";"1";"3";"1"
"43";"1803988951";"3";"1";"0";"1";"0";"0";;"3";;"2";"1";"1";"5756574951";"1626104355268";"988904";"1";"2";"1"
"44";"269162698";"3";"1";"0";"1";"0";"0";"méconnaissance des différences entre les 2 sortes de pigeons, les mésanges,...";"3";;"1";"0";"0";"5251485057";"1626105038938";"1193388";"0";"1";"0"
"45";"29953687";"1";"2";"0";"0";"1";"0";;"2";;"1";"1";"1";"99102104";"1626105837217";"1837161";"3";"1";"0"
"46";"1343423195";"2";"2";"0";"1";"0";"0";;"2";;"1";"1";"1";"5248495753";"1626107022081";"1145761";"1";"1";"0"
"47";"1998219858";"3";"1";"0";"1";"0";"0";;"2";;"1";"1";"1";"5150575348";"1626107935043";"630078";"1";"1";"1"
"48";"292177553";"2";"1";"1";"1";"0";"0";;"3";;"1";"1";"1";"5554535257";"1626107348103";"1534632";"0";"1";"0"
"49";"1450071338";"2";"1";"0";"1";"1";"0";;"2";;"2";"0";"2";"99103109";"1626112597701";"1942611";"0";"2";"0"
"50";"1130952047";"2";"1";"0";"1";"0";"0";;"2";;"0";"2";"2";"5252555153";"1626115429733";"1485661";"1";"2";"0"
"51";"1485301185";"3";"0";"1";"0";"0";"0";;"4";;"3";"2";"2";"5648515554";"1626163798419";"893630";"3";"3";"3"
"52";"701316120";"2";"2";"1";"0";"0";"0";;"4";;"2";"2";"3";"5648565652";"1626164066668";"918506";"1";"2";"1"
"53";"525353226";"2";"2";"0";"1";"1";"0";;"3";;"0";"0";"1";"100104107";"1626164101960";"1364282";"1";"3";"1"
"54";"1470400379";"3";"2";"0";"1";"0";"0";;"2";;"0";"0";"0";"99104107";"1626164706146";"768527";"1";"1";"1"
"55";"396967637";"1";"2";"0";"1";"0";"0";;"2";;"0";"1";"1";"5254575657";"1626167868812";"1617065";"2";"1";"2"
