"log_id";"user";"currenttrial";"answer";"attention_answer";"answerhistory";"certitude";"certitudehistory";"issamecertitude";"issameanswer";"timestamp";"time"
"1";"968224478";"13";"Mésange charbonnière,Choucas des tours";"Mésange charbonnière";"""[""Mésange charbonnière""]""";"1";"""[""1""]""";"1";"0";"1624884849184";"103571"
"2";"1804246030";"13";"Rouge-gorge";"Rouge-gorge";"""[""Rouge-gorge""]""";"5";"""[""5""]""";"1";"1";"1624884855600";"161368"
"3";"968224478";"26";"Pigeon biset,Pigeon ramier";"Pigeon ramier";"""[""Pigeon ramier""]""";"6";"""[""6""]""";"1";"0";"1624884849184";"178429"
"4";"1804246030";"26";"Rouge-gorge";"Rouge-gorge";"""[""Rouge-gorge""]""";"5";"""[""5""]""";"1";"1";"1624884855600";"257701"
"5";"968224478";"39";"Mésange nonnette,Mésange charbonnière";"Choucas des tours";"""[""Pigeon ramier"",""Choucas des tours""]""";"2";"""[""1""]""";"0";"0";"1624884849184";"267484"
"6";"605704454";"13";"Corbeau freux";"Corbeau freux";"""[""Corbeau freux""]""";"5";"""[""5""]""";"1";"1";"1624884969059";"190954"
"7";"750890005";"13";"Pigeon ramier,Pigeon biset";"Pigeon ramier,Pigeon biset";"""[""Pigeon ramier"",""Pigeon biset""]""";"6";"""[""6""]""";"1";"1";"1624884934383";"229577"
"8";"531627195";"13";"Grand Corbeau";"Grand Corbeau";"""[""Grand Corbeau""]""";"7";"""[""7""]""";"1";"1";"1624885023560";"152757"
"9";"1804246030";"39";"Mésange à tête noire,Mésange charbonnière,Mésange nonnette";"Mésange à tête noire,Mésange charbonnière,Mésange nonnette";"""[""Mésange nonnette"",""Mésange charbonnière"",""Mésange à tête noire""]""";"5";"""[""5""]""";"1";"1";"1624884855600";"337895"
"10";"1000834801";"13";"Mésange nonnette,Mésange à tête noire,Mésange charbonnière";"Mésange nonnette,Mésange à tête noire,Mésange charbonnière";"""[""Mésange à tête noire"",""Mésange charbonnière"",""Mésange nonnette""]""";"6";"""[""6""]""";"1";"1";"1624885027850";"176397"
"11";"531627195";"26";"Corneille noire";"Corneille noire";"""[""Corneille noire""]""";"6";"""[""6""]""";"1";"1";"1624885023560";"236386"
"12";"605704454";"26";"Pigeon biset";"Pigeon biset";"""[""Pigeon biset""]""";"5";"""[""5""]""";"1";"1";"1624884969059";"301243"
"13";"1862690650";"13";"Pigeon ramier,Pigeon biset";"Pigeon ramier,Pigeon biset";"""[""Pigeon biset"",""Corbeau freux"",""Pigeon ramier""]""";"5";"""[""5""]""";"1";"1";"1624885126150";"169243"
"14";"941738530";"13";"Corbeau freux";"Corbeau freux";"""[""Corbeau freux""]""";"7";"""[""7""]""";"1";"1";"1624885037424";"266811"
"15";"1454291315";"13";"Grand Corbeau,Choucas des tours,Corneille noire";"Grand Corbeau,Choucas des tours,Corneille noire,Corbeau freux";"""[""Grand Corbeau"",""Choucas des tours"",""Corneille noire"",""Corbeau freux""]""";"6";"""[""7""]""";"0";"0";"1624885141917";"163912"
"16";"1000834801";"26";"Corbeau freux,Grand Corbeau";"Corbeau freux,Grand Corbeau";"""[""Corbeau freux"",""Grand Corbeau""]""";"4";"""[""4""]""";"1";"1";"1624885027850";"289637"
"17";"531627195";"39";"Mésange à tête noire";"Mésange à tête noire";"""[""Mésange à tête noire""]""";"6";"""[""6""]""";"1";"1";"1624885023560";"303969"
"18";"1326664301";"13";"Pigeon biset,Pigeon ramier";"Pigeon biset,Pigeon ramier";"""[""Pigeon biset"",""Pigeon ramier""]""";"6";"""[""6""]""";"1";"1";"1624885118492";"249271"
"19";"605704454";"39";"Mésange à tête noire,Mésange nonnette";"Mésange à tête noire,Mésange nonnette";"""[""Mésange à tête noire"",""Mésange nonnette""]""";"5";"""[""5""]""";"1";"1";"1624884969059";"399321"
"20";"2143205128";"13";"Pigeon biset,Pigeon ramier";"Pigeon biset,Pigeon ramier";"""[""Pigeon ramier"",""Pigeon biset"",""Corbeau freux"",""Grand Corbeau"",""Pigeon biset"",""Pigeon ramier"",""Pigeon biset""]""";"7";"""[""6""]""";"0";"1";"1624885222809";"158787"
"21";"1000834801";"39";"Mésange nonnette,Mésange charbonnière";"Mésange nonnette,Mésange à tête noire";"""[""Mésange nonnette"",""Mésange à tête noire""]""";"6";"""[""6""]""";"1";"0";"1624885027850";"372677"
"22";"1862690650";"26";"Choucas des tours";"Choucas des tours";"""[""Mésange nonnette"",""Choucas des tours""]""";"6";"""[""6""]""";"1";"1";"1624885126150";"278257"
"23";"1454291315";"26";"Grand Corbeau,Choucas des tours,Corneille noire,Corbeau freux";"Grand Corbeau,Choucas des tours,Corneille noire,Corbeau freux";"""[""Grand Corbeau"",""Choucas des tours"",""Corneille noire"",""Corbeau freux""]""";"4";"""[""7""]""";"0";"1";"1624885141917";"274360"
"24";"750890005";"26";"Grand Corbeau,Corneille noire,Corbeau freux";"Grand Corbeau,Corbeau freux";"""[""Corbeau freux"",""Grand Corbeau""]""";"6";"""[""6""]""";"1";"0";"1624884934383";"490292"
"25";"2143205128";"26";"Corbeau freux";"Pigeon biset,Pigeon ramier";"""[""Corbeau freux"",""Pigeon biset"",""Pigeon ramier""]""";"5";"""[""6""]""";"0";"0";"1624885222809";"261419"
"26";"1862690650";"39";"Mésange nonnette,Mésange charbonnière";"Mésange nonnette,Mésange charbonnière";"""[""Mésange nonnette"",""Mésange charbonnière""]""";"3";"""[""3""]""";"1";"1";"1624885126150";"375838"
"27";"941738530";"26";"Mésange à tête noire";"Mésange à tête noire";"""[""Mésange à tête noire""]""";"7";"""[""7""]""";"1";"1";"1624885037424";"477076"
"28";"1454291315";"39";"Grand Corbeau,Choucas des tours,Corneille noire,Corbeau freux";"Grand Corbeau,Choucas des tours,Corneille noire,Corbeau freux";"""[""Grand Corbeau"",""Choucas des tours"",""Corneille noire"",""Corbeau freux""]""";"6";"""[""7""]""";"0";"1";"1624885141917";"380344"
"29";"1326664301";"26";"Mésange charbonnière,Mésange nonnette,Mésange à tête noire";"Mésange charbonnière,Mésange nonnette,Mésange à tête noire";"""[""Mésange charbonnière"",""Mésange nonnette"",""Mésange à tête noire""]""";"7";"""[""7""]""";"1";"1";"1624885118492";"405109"
"30";"1111297823";"13";"Pigeon ramier";"Pigeon ramier";"""[""Pigeon ramier""]""";"6";"""[""6""]""";"1";"1";"1624885383185";"159964"
"31";"197543131";"13";"Grand Corbeau";"Corneille noire";"""[""Corneille noire""]""";"6";"""[""6""]""";"1";"0";"1624885411452";"147815"
"32";"2143205128";"39";"Mésange nonnette,Mésange à tête noire,Mésange charbonnière";"Rouge-gorge";"""[""Rouge-gorge""]""";"7";"""[""7""]""";"1";"0";"1624885222809";"338352"
"33";"530161058";"13";"Pigeon biset";"Pigeon ramier";"""[""Pigeon ramier""]""";"6";"""[""7""]""";"0";"0";"1624885234378";"334820"
"34";"1114034773";"13";"Pigeon ramier,Pigeon biset";"Pigeon ramier,Pigeon biset";"""[""Pigeon ramier"",""Pigeon biset""]""";"5";"""[""5""]""";"1";"1";"1624885350382";"222912"
"35";"941738530";"39";"Corneille noire";"Corneille noire";"""[""Corneille noire""]""";"7";"""[""7""]""";"1";"1";"1624885037424";"591817"
"36";"1111297823";"26";"Mésange à tête noire";"Mésange à tête noire";"""[""Mésange à tête noire""]""";"7";"""[""7""]""";"1";"1";"1624885383185";"253439"
"37";"1326664301";"39";"Pigeon biset,Pigeon ramier";"Pigeon biset,Pigeon ramier";"""[""Pigeon biset"",""Pigeon ramier""]""";"7";"""[""7""]""";"1";"1";"1624885118492";"529335"
"38";"197543131";"26";"Mésange à tête noire,Choucas des tours,Mésange nonnette,Mésange charbonnière";"Mésange à tête noire,Choucas des tours,Mésange nonnette,Mésange charbonnière";"""[""Mésange à tête noire"",""Choucas des tours"",""Mésange nonnette"",""Mésange charbonnière""]""";"7";"""[""7""]""";"1";"1";"1624885411452";"241711"
"39";"750890005";"39";"Mésange à tête noire";"Mésange charbonnière";"""[""Mésange charbonnière""]""";"6";"""[""6""]""";"1";"0";"1624884934383";"757901"
"40";"1682835250";"13";"Mésange à tête noire,Mésange nonnette";"Mésange à tête noire,Mésange nonnette";"""[""Mésange à tête noire"",""Mésange nonnette""]""";"4";"""[""4""]""";"1";"1";"1624885512178";"192747"
"41";"1111297823";"39";"Mésange à tête noire";"Mésange à tête noire";"""[""Mésange à tête noire""]""";"7";"""[""7""]""";"1";"1";"1624885383185";"328567"
"42";"1277943570";"13";"Corneille noire";"Corneille noire";"""[""Corneille noire""]""";"6";"""[""6""]""";"1";"1";"1624885080312";"642963"
"43";"530161058";"26";"Corbeau freux,Choucas des tours,Grand Corbeau";"Choucas des tours,Grand Corbeau";"""[""Choucas des tours"",""Grand Corbeau""]""";"6";"""[""6""]""";"1";"0";"1624885234378";"519950"
"44";"1114034773";"26";"Corbeau freux,Corneille noire,Grand Corbeau";"Corbeau freux,Corneille noire";"""[""Corneille noire"",""Corbeau freux""]""";"7";"""[""7""]""";"1";"0";"1624885350382";"410024"
"45";"197543131";"39";"Grand Corbeau,Corneille noire,Corbeau freux";"Grand Corbeau,Corneille noire,Corbeau freux";"""[""Grand Corbeau"",""Corneille noire"",""Corbeau freux""]""";"7";"""[""7""]""";"1";"1";"1624885411452";"351653"
"46";"1392172381";"13";"Mésange à tête noire,Choucas des tours";"Mésange à tête noire,Choucas des tours";"""[""Mésange à tête noire"",""Choucas des tours""]""";"5";"""[""5""]""";"1";"1";"1624885503687";"277489"
"47";"105660181";"13";"Rouge-gorge,Mésange nonnette,Mésange charbonnière,Mésange à tête noire";"Mésange nonnette,Mésange charbonnière,Mésange à tête noire";"""[""Mésange nonnette"",""Mésange charbonnière"",""Mésange à tête noire""]""";"7";"""[""7""]""";"1";"0";"1624885548531";"250782"
"48";"1622133560";"13";"Corneille noire";"Grand Corbeau,Corneille noire";"""[""Grand Corbeau"",""Corneille noire""]""";"5";"""[""5""]""";"1";"0";"1624885233410";"583934"
"49";"1002605327";"13";"Rouge-gorge";"Rouge-gorge";"""[""Rouge-gorge""]""";"7";"""[""7""]""";"1";"1";"1624885676578";"151894"
"50";"262008714";"13";"Mésange nonnette,Mésange à tête noire,Choucas des tours,Mésange charbonnière";"Mésange nonnette,Mésange à tête noire,Choucas des tours,Mésange charbonnière";"""[""Mésange nonnette"",""Mésange à tête noire"",""Choucas des tours"",""Mésange charbonnière""]""";"4";"""[""4"",""3""]""";"0";"1";"1624885686164";"180747"
"51";"88622946";"13";"Pigeon ramier,Pigeon biset";"Pigeon ramier,Pigeon biset";"""[""Pigeon ramier"",""Pigeon biset""]""";"7";"""[""7""]""";"1";"1";"1624885716177";"162028"
"52";"258979210";"13";"Mésange nonnette,Mésange charbonnière";"Mésange nonnette,Mésange à tête noire,Mésange charbonnière";"""[""Mésange à tête noire"",""Mésange nonnette"",""Mésange charbonnière""]""";"6";"""[""7""]""";"0";"0";"1624885671390";"219291"
"53";"1114034773";"39";"Grand Corbeau";"Grand Corbeau";"""[""Grand Corbeau""]""";"4";"""[""4"",""3""]""";"0";"1";"1624885350382";"554488"
"54";"1682835250";"26";"Pigeon ramier,Pigeon biset";"Pigeon ramier,Pigeon biset";"""[""Pigeon ramier"",""Pigeon biset""]""";"4";"""[""4""]""";"1";"1";"1624885512178";"396474"
"55";"530161058";"39";"Corbeau freux,Corneille noire,Choucas des tours,Grand Corbeau";"Corbeau freux,Corneille noire,Choucas des tours";"""[""Corbeau freux"",""Choucas des tours"",""Corneille noire""]""";"5";"""[""5""]""";"1";"0";"1624885234378";"681376"
"56";"105660181";"26";"Corbeau freux,Corneille noire,Grand Corbeau";"Corbeau freux,Corneille noire";"""[""Corbeau freux"",""Corneille noire""]""";"7";"""[""7""]""";"1";"0";"1624885548531";"405342"
"57";"88622946";"26";"Mésange nonnette,Mésange charbonnière";"Mésange nonnette,Mésange charbonnière";"""[""Mésange nonnette"",""Mésange charbonnière""]""";"7";"""[""6""]""";"0";"1";"1624885716177";"248164"
"58";"1392172381";"26";"Pigeon biset,Pigeon ramier";"Pigeon biset,Pigeon ramier";"""[""Pigeon biset"",""Pigeon ramier""]""";"6";"""[""6""]""";"1";"1";"1624885503687";"461072"
"59";"262008714";"26";"Mésange nonnette,Mésange à tête noire,Choucas des tours,Mésange charbonnière";"Mésange nonnette,Mésange à tête noire,Choucas des tours,Mésange charbonnière";"""[""Mésange nonnette"",""Mésange à tête noire"",""Choucas des tours"",""Mésange charbonnière""]""";"3";"""[""3""]""";"1";"1";"1624885686164";"312894"
"60";"1682835250";"39";"Mésange à tête noire,Mésange nonnette";"Mésange à tête noire,Mésange nonnette";"""[""Mésange à tête noire"",""Mésange nonnette""]""";"4";"""[""4""]""";"1";"1";"1624885512178";"513865"
"61";"258979210";"26";"Mésange nonnette";"Mésange nonnette,Mésange à tête noire,Mésange charbonnière";"""[""Mésange nonnette"",""Mésange à tête noire"",""Mésange charbonnière""]""";"7";"""[""7""]""";"1";"0";"1624885671390";"363360"
"62";"88622946";"39";"Mésange nonnette,Mésange charbonnière";"Mésange nonnette,Mésange charbonnière";"""[""Mésange nonnette"",""Mésange charbonnière""]""";"6";"""[""5""]""";"0";"1";"1624885716177";"328481"
"63";"1190066582";"13";"Grand Corbeau,Corbeau freux";"Corneille noire,Grand Corbeau,Corbeau freux";"""[""Grand Corbeau"",""Corbeau freux"",""Corneille noire""]""";"5";"""[""5""]""";"1";"0";"1624885850323";"204906"
"64";"1607637722";"13";"Mésange à tête noire,Mésange nonnette,Mésange charbonnière";"Mésange à tête noire,Mésange nonnette";"""[""Mésange nonnette"",""Mésange à tête noire""]""";"5";"""[""5""]""";"1";"0";"1624885925096";"137917"
"65";"262008714";"39";"Grand Corbeau,Corneille noire,Pigeon biset";"Grand Corbeau,Corneille noire,Corbeau freux";"""[""Grand Corbeau"",""Corneille noire"",""Corbeau freux""]""";"5";"""[""5""]""";"1";"0";"1624885686164";"392367"
"66";"105660181";"39";"Corbeau freux,Corneille noire,Grand Corbeau";"Corbeau freux,Corneille noire";"""[""Corbeau freux"",""Corneille noire""]""";"7";"""[""7""]""";"1";"0";"1624885548531";"541358"
"67";"1622133560";"26";"Grand Corbeau,Corneille noire,Corbeau freux";"Grand Corbeau,Corneille noire,Corbeau freux";"""[""Grand Corbeau"",""Corneille noire"",""Corbeau freux""]""";"5";"""[""5""]""";"1";"1";"1624885233410";"858475"
"68";"1607637722";"26";"Mésange à tête noire,Mésange nonnette";"Mésange nonnette,Choucas des tours";"""[""Mésange nonnette"",""Choucas des tours""]""";"5";"""[""3""]""";"0";"0";"1624885925096";"227266"
"69";"1392172381";"39";"Corbeau freux,Corneille noire,Grand Corbeau";"Corbeau freux,Corneille noire,Grand Corbeau";"""[""Corbeau freux"",""Corneille noire"",""Grand Corbeau""]""";"7";"""[""7""]""";"1";"1";"1624885503687";"651242"
"70";"372960290";"13";"Pigeon biset,Pigeon ramier";"Pigeon biset,Pigeon ramier";"""[""Pigeon biset"",""Pigeon ramier""]""";"7";"""[""7""]""";"1";"1";"1624885987685";"184525"
"71";"258979210";"39";"Mésange nonnette,Mésange à tête noire,Mésange charbonnière";"Mésange nonnette,Mésange à tête noire,Mésange charbonnière";"""[""Mésange nonnette"",""Mésange à tête noire"",""Mésange charbonnière""]""";"7";"""[""7""]""";"1";"1";"1624885671390";"509512"
"72";"1190066582";"26";"Mésange nonnette,Mésange charbonnière,Mésange à tête noire";"Mésange nonnette,Mésange charbonnière,Mésange à tête noire";"""[""Mésange charbonnière"",""Mésange nonnette"",""Mésange nonnette"",""Mésange à tête noire""]""";"5";"""[""6""]""";"0";"1";"1624885850323";"336354"
"73";"1277943570";"26";"Mésange à tête noire";"Mésange à tête noire";"""[""Mésange à tête noire""]""";"6";"""[""6""]""";"1";"1";"1624885080312";"1110725"
"74";"1607637722";"39";"Grand Corbeau,Corbeau freux";"Grand Corbeau,Corbeau freux";"""[""Grand Corbeau"",""Corbeau freux""]""";"6";"""[""6""]""";"1";"1";"1624885925096";"307799"
"75";"475503843";"13";"Pigeon ramier,Pigeon biset";"Pigeon ramier,Pigeon biset";"""[""Pigeon biset"",""Pigeon ramier""]""";"6";"""[""6""]""";"1";"1";"1624886086993";"186689"
"76";"50901778";"13";"Corneille noire,Grand Corbeau";"Corneille noire,Grand Corbeau";"""[""Corbeau freux"",""Grand Corbeau"",""Corneille noire""]""";"6";"""[""7"",""6""]""";"1";"1";"1624885944992";"330317"
"77";"1034507226";"13";"Corneille noire";"Corneille noire";"""[""Corneille noire""]""";"4";"""[""4""]""";"1";"1";"1624886073602";"241736"
"78";"372960290";"26";"Corneille noire,Corbeau freux";"Corneille noire,Corbeau freux";"""[""Corneille noire"",""Corbeau freux""]""";"7";"""[""7""]""";"1";"1";"1624885987685";"330474"
"79";"1110753691";"13";"Pigeon biset,Pigeon ramier";"Pigeon biset,Pigeon ramier";"""[""Pigeon biset"",""Pigeon ramier""]""";"3";"""[""3""]""";"1";"1";"1624886151096";"178700"
"80";"1622133560";"39";"Mésange à tête noire";"Mésange à tête noire";"""[""Mésange à tête noire""]""";"5";"""[""5""]""";"1";"1";"1624885233410";"1106863"
"81";"1190066582";"39";"Corneille noire,Choucas des tours";"Corneille noire,Choucas des tours";"""[""Corneille noire"",""Choucas des tours""]""";"4";"""[""5""]""";"0";"1";"1624885850323";"505971"
"82";"1002605327";"26";"Mésange à tête noire,Mésange nonnette";"Mésange à tête noire,Mésange nonnette";"""[""Mésange à tête noire"",""Mésange nonnette""]""";"6";"""[""6""]""";"1";"1";"1624885676578";"731043"
"83";"1034507226";"26";"Corbeau freux";"Mésange nonnette";"""[""Mésange nonnette""]""";"3";"""[""3""]""";"1";"0";"1624886073602";"334870"
"84";"475503843";"26";"Grand Corbeau,Corbeau freux,Corneille noire";"Grand Corbeau,Corbeau freux,Corneille noire";"""[""Grand Corbeau"",""Corbeau freux"",""Corneille noire""]""";"7";"""[""7""]""";"1";"1";"1624886086993";"322800"
"85";"50901778";"26";"Mésange charbonnière";"Mésange nonnette,Mésange à tête noire,Mésange charbonnière";"""[""Mésange charbonnière"",""Mésange à tête noire"",""Mésange nonnette""]""";"7";"""[""7""]""";"1";"0";"1624885944992";"471450"
"86";"372960290";"39";"Rouge-gorge";"Rouge-gorge";"""[""Rouge-gorge""]""";"7";"""[""7""]""";"1";"1";"1624885987685";"435057"
"87";"50901778";"39";"Pigeon ramier";"Pigeon biset,Pigeon ramier";"""[""Pigeon ramier"",""Pigeon biset""]""";"7";"""[""7""]""";"1";"0";"1624885944992";"540390"
"88";"1034507226";"39";"Mésange nonnette";"Mésange nonnette";"""[""Pigeon ramier"",""Pigeon biset"",""Mésange nonnette""]""";"4";"""[""4""]""";"1";"1";"1624886073602";"428767"
"89";"1277943570";"39";"Choucas des tours";"Choucas des tours";"""[""Choucas des tours""]""";"5";"""[""5""]""";"1";"1";"1624885080312";"1435721"
"90";"475503843";"39";"Mésange nonnette,Mésange à tête noire,Mésange charbonnière,Rouge-gorge";"Mésange nonnette,Choucas des tours,Mésange à tête noire,Mésange charbonnière";"""[""Mésange nonnette"",""Choucas des tours"",""Mésange à tête noire"",""Mésange charbonnière"",""Rouge-gorge""]""";"7";"""[""7""]""";"1";"0";"1624886086993";"461827"
"91";"1110753691";"26";"Rouge-gorge";"Rouge-gorge";"""[""Rouge-gorge""]""";"3";"""[""3""]""";"1";"1";"1624886151096";"399060"
"92";"702269139";"13";"Grand Corbeau";"Grand Corbeau";"""[""Grand Corbeau""]""";"5";"""[""5""]""";"1";"1";"1624886280266";"461200"
"93";"85683369";"13";"Mésange charbonnière";"Mésange charbonnière";"""[""Mésange charbonnière""]""";"6";"""[""5""]""";"0";"1";"1624886188108";"577852"
"94";"1110753691";"39";"Mésange à tête noire";"Mésange à tête noire";"""[""Mésange à tête noire""]""";"3";"""[""3""]""";"1";"1";"1624886151096";"617149"
"95";"746040526";"13";"Corbeau freux";"Corbeau freux";"""[""Corbeau freux""]""";"7";"""[""7""]""";"1";"1";"1624886567440";"279077"
"96";"702269139";"26";"Pigeon biset";"Pigeon biset";"""[""Pigeon biset""]""";"5";"""[""6""]""";"0";"1";"1624886280266";"698057"
"97";"85683369";"26";"Corneille noire,Choucas des tours,Grand Corbeau,Corbeau freux";"Corneille noire,Grand Corbeau";"""[""Corneille noire"",""Grand Corbeau""]""";"5";"""[""5""]""";"1";"0";"1624886188108";"848086"
"98";"746040526";"26";"Mésange à tête noire";"Mésange à tête noire";"""[""Mésange à tête noire""]""";"7";"""[""7""]""";"1";"1";"1624886567440";"597394"
"99";"1002605327";"39";"Mésange à tête noire,Mésange nonnette";"Mésange à tête noire,Mésange nonnette";"""[""Mésange à tête noire"",""Mésange nonnette""]""";"5";"""[""6""]""";"0";"1";"1624885676578";"1503608"
"100";"85683369";"39";"Corneille noire,Choucas des tours";"Corneille noire,Choucas des tours,Grand Corbeau";"""[""Corneille noire"",""Choucas des tours"",""Grand Corbeau""]""";"5";"""[""5""]""";"1";"0";"1624886188108";"1004845"
"101";"702269139";"39";"Choucas des tours";"Choucas des tours";"""[""Corbeau freux"",""Choucas des tours""]""";"3";"""[""3""]""";"1";"1";"1624886280266";"936148"
"102";"746040526";"39";"Mésange nonnette";"Mésange nonnette";"""[""Mésange nonnette""]""";"7";"""[""7""]""";"1";"1";"1624886567440";"809926"
"103";"159098869";"13";"Pigeon ramier";"Pigeon ramier";"""[""Pigeon ramier""]""";"5";"""[""5""]""";"1";"1";"1624888134221";"123426"
"104";"159098869";"26";"Mésange nonnette";"Mésange nonnette";"""[""Mésange nonnette""]""";"5";"""[""5""]""";"1";"1";"1624888134221";"205029"
"105";"159098869";"39";"Mésange nonnette";"Mésange nonnette";"""[""Mésange nonnette""]""";"5";"""[""5""]""";"1";"1";"1624888134221";"275858"
"106";"242463804";"13";"Corbeau freux,Corneille noire,Grand Corbeau";"Corbeau freux,Corneille noire,Grand Corbeau";"""[""Corbeau freux"",""Corneille noire"",""Grand Corbeau""]""";"6";"""[""6""]""";"1";"1";"1624888393698";"210965"
"107";"242463804";"26";"Mésange à tête noire";"Mésange à tête noire";"""[""Mésange à tête noire""]""";"4";"""[""4""]""";"1";"1";"1624888393698";"355594"
"108";"5113599";"13";"Pigeon ramier,Pigeon biset";"Pigeon ramier,Pigeon biset";"""[""Pigeon ramier"",""Pigeon biset""]""";"6";"""[""6""]""";"1";"1";"1624888552626";"254924"
"109";"242463804";"39";"Corbeau freux,Corneille noire,Grand Corbeau";"Corbeau freux,Corneille noire,Grand Corbeau";"""[""Corbeau freux"",""Grand Corbeau"",""Corneille noire""]""";"5";"""[""5""]""";"1";"1";"1624888393698";"483950"
"110";"5113599";"26";"Pigeon ramier,Pigeon biset";"Pigeon ramier,Pigeon biset";"""[""Pigeon biset"",""Pigeon ramier""]""";"6";"""[""6""]""";"1";"1";"1624888552626";"400162"
"111";"1623711988";"13";"Grand Corbeau";"Grand Corbeau";"""[""Grand Corbeau""]""";"5";"""[""5""]""";"1";"1";"1624888982372";"155449"
"112";"5113599";"39";"Mésange charbonnière,Mésange nonnette,Mésange à tête noire";"Mésange charbonnière,Mésange nonnette,Mésange à tête noire";"""[""Mésange à tête noire"",""Mésange nonnette"",""Mésange charbonnière""]""";"6";"""[""6""]""";"1";"1";"1624888552626";"586862"
"113";"1623711988";"26";"Grand Corbeau";"Corneille noire";"""[""Corneille noire""]""";"5";"""[""5""]""";"1";"0";"1624888982372";"251906"
"114";"1623711988";"39";"Corbeau freux,Corneille noire,Grand Corbeau";"Corbeau freux,Corneille noire,Grand Corbeau";"""[""Grand Corbeau"",""Corneille noire"",""Corbeau freux""]""";"5";"""[""5""]""";"1";"1";"1624888982372";"368204"
"115";"1813676587";"13";"Corneille noire";"Corneille noire";"""[""Corneille noire""]""";"6";"""[""7"",""6""]""";"1";"1";"1624888808114";"585512"
"116";"1087077969";"13";"Pigeon biset,Pigeon ramier";"Pigeon biset,Pigeon ramier";"""[""Pigeon biset"",""Pigeon ramier""]""";"6";"""[""6""]""";"1";"1";"1624889290334";"213954"
"117";"926083697";"13";"Corbeau freux,Grand Corbeau,Corneille noire";"Corbeau freux,Grand Corbeau,Corneille noire";"""[""Corbeau freux"",""Grand Corbeau"",""Corneille noire""]""";"3";"""[""3""]""";"1";"1";"1624889348218";"250766"
"118";"1087077969";"26";"Corneille noire";"Corneille noire";"""[""Corneille noire""]""";"7";"""[""7""]""";"1";"1";"1624889290334";"376168"
"119";"290066666";"13";"Mésange nonnette,Mésange à tête noire,Mésange charbonnière,Choucas des tours";"Mésange nonnette,Mésange à tête noire,Mésange charbonnière,Choucas des tours";"""[""Mésange nonnette"",""Mésange à tête noire"",""Mésange charbonnière"",""Choucas des tours""]""";"7";"""[""7""]""";"1";"1";"1624889480162";"190382"
"120";"1034295227";"13";"Mésange nonnette,Mésange à tête noire,Mésange charbonnière";"Mésange à tête noire";"""[""Mésange à tête noire""]""";"5";"""[""5""]""";"1";"0";"1624889374040";"320246"
"121";"1813676587";"26";"Pigeon ramier";"Pigeon ramier";"""[""Pigeon ramier""]""";"7";"""[""7""]""";"1";"1";"1624888808114";"937724"
"122";"1087077969";"39";"Corneille noire,Corbeau freux";"Corneille noire,Corbeau freux";"""[""Corbeau freux"",""Corneille noire""]""";"7";"""[""7""]""";"1";"1";"1624889290334";"501879"
"123";"926083697";"26";"Mésange nonnette,Mésange charbonnière";"Mésange nonnette,Mésange charbonnière";"""[""Mésange nonnette"",""Mésange charbonnière""]""";"5";"""[""5""]""";"1";"1";"1624889348218";"444441"
"124";"290066666";"26";"Mésange nonnette,Mésange à tête noire,Mésange charbonnière,Choucas des tours";"Mésange nonnette,Mésange à tête noire,Mésange charbonnière,Choucas des tours";"""[""Choucas des tours"",""Mésange charbonnière"",""Mésange à tête noire"",""Mésange nonnette""]""";"7";"""[""7""]""";"1";"1";"1624889480162";"321757"
"125";"1034295227";"26";"Corbeau freux,Corneille noire,Grand Corbeau";"Corneille noire";"""[""Corneille noire""]""";"5";"""[""5""]""";"1";"0";"1624889374040";"530555"
"126";"1813676587";"39";"Corbeau freux";"Corbeau freux";"""[""Corbeau freux""]""";"7";"""[""7""]""";"1";"1";"1624888808114";"1117667"
"127";"290066666";"39";"Corneille noire,Grand Corbeau,Corbeau freux,Choucas des tours";"Corneille noire,Grand Corbeau,Corbeau freux,Choucas des tours";"""[""Corneille noire"",""Grand Corbeau"",""Corbeau freux"",""Choucas des tours""]""";"7";"""[""7""]""";"1";"1";"1624889480162";"445967"
"128";"926083697";"39";"Mésange à tête noire";"Mésange à tête noire";"""[""Mésange à tête noire""]""";"6";"""[""6""]""";"1";"1";"1624889348218";"610275"
"129";"1034295227";"39";"Corneille noire";"Corbeau freux";"""[""Corneille noire"",""Corbeau freux""]""";"5";"""[""5""]""";"1";"0";"1624889374040";"723052"
"130";"1316485970";"13";"Mésange charbonnière";"Corneille noire";"""[""Corneille noire""]""";"3";"""[""4""]""";"0";"0";"1624891328405";"136999"
"131";"1316485970";"26";"Pigeon ramier";"Mésange charbonnière";"""[""Mésange charbonnière""]""";"4";"""[""4"",""3""]""";"0";"0";"1624891328405";"199800"
"132";"935701980";"13";"Mésange à tête noire,Mésange charbonnière";"Mésange à tête noire,Mésange charbonnière";"""[""Mésange à tête noire"",""Mésange charbonnière""]""";"6";"""[""6""]""";"1";"1";"1624891430596";"137888"
"133";"1316485970";"39";"Mésange charbonnière";"Corneille noire";"""[""Corneille noire""]""";"3";"""[""3""]""";"1";"0";"1624891328405";"248655"
"134";"935701980";"26";"Pigeon ramier,Pigeon biset";"Pigeon ramier";"""[""Pigeon ramier""]""";"7";"""[""6""]""";"0";"0";"1624891430596";"233750"
"135";"1575419279";"13";"Grand Corbeau,Corbeau freux,Choucas des tours";"Pigeon ramier,Pigeon biset,Grand Corbeau";"""[""Pigeon ramier"",""Pigeon biset"",""Grand Corbeau""]""";"4";"""[""4""]""";"1";"0";"1624891628030";"115950"
"136";"935701980";"39";"Choucas des tours,Corbeau freux";"Corneille noire,Corbeau freux";"""[""Corneille noire"",""Corbeau freux""]""";"6";"""[""6""]""";"1";"0";"1624891430596";"336942"
"137";"1575419279";"26";"Pigeon ramier,Pigeon biset";"Pigeon ramier,Pigeon biset";"""[""Pigeon ramier"",""Pigeon biset""]""";"5";"""[""5""]""";"1";"1";"1624891628030";"196384"
"138";"1575419279";"39";"Pigeon ramier,Pigeon biset";"Pigeon ramier,Pigeon biset";"""[""Pigeon ramier"",""Pigeon biset""]""";"5";"""[""6""]""";"0";"1";"1624891628030";"267762"
"139";"100372857";"13";"Corneille noire";"Mésange à tête noire";"""[""Mésange à tête noire""]""";"6";"""[""6""]""";"1";"0";"1624898822273";"296788"
"140";"100372857";"26";"Grand Corbeau";"Grand Corbeau";"""[""Grand Corbeau""]""";"6";"""[""6""]""";"1";"1";"1624898822273";"429638"
"141";"100372857";"39";"Grand Corbeau";"Grand Corbeau";"""[""Grand Corbeau""]""";"5";"""[""5""]""";"1";"1";"1624898822273";"504913"
"142";"901265109";"13";"Grand Corbeau";"Grand Corbeau,Mésange à tête noire";"""[""Grand Corbeau"",""Mésange à tête noire""]""";"2";"""[""2""]""";"1";"0";"1624904261297";"128205"
"143";"901265109";"26";"Rouge-gorge,Choucas des tours,Mésange charbonnière";"Choucas des tours,Mésange nonnette";"""[""Choucas des tours"",""Mésange nonnette""]""";"1";"""[""1""]""";"1";"0";"1624904261297";"951343"
"144";"901265109";"39";"Pigeon ramier,Pigeon biset";"Pigeon ramier,Pigeon biset";"""[""Pigeon ramier"",""Pigeon biset""]""";"2";"""[""2""]""";"1";"1";"1624904261297";"1022831"
"145";"430328450";"13";"Corbeau freux,Grand Corbeau";"Corbeau freux,Grand Corbeau";"""[""Corbeau freux"",""Grand Corbeau""]""";"5";"""[""5""]""";"1";"1";"1624951959014";"94407"
"146";"430328450";"26";"Corbeau freux,Grand Corbeau";"Corbeau freux,Grand Corbeau";"""[""Grand Corbeau"",""Corbeau freux""]""";"6";"""[""5""]""";"0";"1";"1624951959014";"143511"
"147";"430328450";"39";"Pigeon ramier";"Pigeon ramier";"""[""Pigeon ramier""]""";"5";"""[""5""]""";"1";"1";"1624951959014";"202291"
"148";"177363306";"13";"Pigeon biset,Pigeon ramier";"Pigeon biset,Pigeon ramier";"""[""Pigeon biset"",""Pigeon ramier""]""";"4";"""[""3"",""4"",""3""]""";"0";"1";"1624952248271";"237251"
"149";"177363306";"26";"Mésange nonnette,Mésange charbonnière,Mésange à tête noire";"Mésange nonnette,Mésange charbonnière,Mésange à tête noire";"""[""Mésange nonnette"",""Mésange charbonnière"",""Mésange à tête noire""]""";"5";"""[""5""]""";"1";"1";"1624952248271";"412055"
"150";"177363306";"39";"Mésange nonnette,Mésange charbonnière";"Mésange nonnette,Mésange charbonnière";"""[""Mésange nonnette"",""Mésange charbonnière""]""";"5";"""[""5""]""";"1";"1";"1624952248271";"541285"
"151";"1627242434";"13";"Pigeon ramier,Pigeon biset";"Pigeon ramier,Pigeon biset";"""[""Pigeon ramier"",""Pigeon biset""]""";"5";"""[""5""]""";"1";"1";"1624958533365";"261937"
"152";"1627242434";"26";"Corneille noire";"Corneille noire";"""[""Corneille noire""]""";"3";"""[""3""]""";"1";"1";"1624958533365";"353520"
"153";"1627242434";"39";"Pigeon ramier,Pigeon biset";"Pigeon ramier,Pigeon biset";"""[""Pigeon ramier"",""Pigeon biset""]""";"4";"""[""4""]""";"1";"1";"1624958533365";"421521"
"154";"823181973";"13";"Corneille noire,Corbeau freux";"Corneille noire,Corbeau freux";"""[""Corneille noire"",""Corbeau freux""]""";"7";"""[""7""]""";"1";"1";"1624960600656";"145356"
"155";"823181973";"26";"Corneille noire,Corbeau freux,Grand Corbeau";"Corneille noire,Corbeau freux,Grand Corbeau";"""[""Corneille noire"",""Corbeau freux"",""Grand Corbeau""]""";"7";"""[""7""]""";"1";"1";"1624960600656";"248590"
"156";"823181973";"39";"Mésange à tête noire,Mésange charbonnière";"Mésange à tête noire,Mésange charbonnière";"""[""Mésange à tête noire"",""Mésange charbonnière""]""";"6";"""[""6""]""";"1";"1";"1624960600656";"352684"
