"log_id";"user";"time";"event_type"
"24";"1322430074";"2020-11-12 17:35:58";"start"
"25";"1277634284";"2020-11-12 17:36:01";"start"
"26";"241400601";"2020-11-12 17:36:22";"start"
"27";"1322430074";"2020-11-12 17:36:27";"start_xp"
"28";"330672611";"2020-11-12 17:36:35";"start"
"29";"1277634284";"2020-11-12 17:37:06";"start_xp"
"30";"241400601";"2020-11-12 17:37:15";"start_xp"
"31";"1824995322";"2020-11-12 17:37:17";"start"
"32";"2088452119";"2020-11-12 17:37:49";"start"
"33";"52785518";"2020-11-12 17:37:51";"start"
"34";"1908593570";"2020-11-12 17:38:02";"start"
"35";"1524636413";"2020-11-12 17:38:08";"start"
"36";"1824995322";"2020-11-12 17:38:13";"start_xp"
"37";"2088452119";"2020-11-12 17:38:16";"start_xp"
"38";"2020312579";"2020-11-12 17:38:27";"start"
"39";"262300359";"2020-11-12 17:38:38";"start"
"40";"1524636413";"2020-11-12 17:38:58";"start_xp"
"41";"330672611";"2020-11-12 17:39:16";"start_xp"
"42";"52785518";"2020-11-12 17:39:25";"start_xp"
"43";"2020312579";"2020-11-12 17:39:34";"start_xp"
"44";"1802175855";"2020-11-12 17:39:46";"start"
"45";"1596393683";"2020-11-12 17:39:51";"start"
"46";"1838316730";"2020-11-12 17:40:11";"start"
"47";"1908593570";"2020-11-12 17:40:18";"start_xp"
"48";"262300359";"2020-11-12 17:40:21";"start_xp"
"49";"2022596241";"2020-11-12 17:40:30";"start"
"50";"1596393683";"2020-11-12 17:41:08";"start_xp"
"51";"700864336";"2020-11-12 17:41:26";"start"
"52";"1838316730";"2020-11-12 17:41:35";"start_xp"
"53";"939164309";"2020-11-12 17:42:01";"start"
"54";"981769570";"2020-11-12 17:42:31";"start"
"55";"606139108";"2020-11-12 17:42:40";"start"
"56";"446068181";"2020-11-12 17:42:51";"start"
"57";"939164309";"2020-11-12 17:42:52";"start_xp"
"58";"1330051673";"2020-11-12 17:43:10";"start"
"59";"981769570";"2020-11-12 17:43:30";"start_xp"
"60";"1802175855";"2020-11-12 17:43:44";"start_xp"
"61";"1388293072";"2020-11-12 17:43:45";"start"
"62";"690076560";"2020-11-12 17:43:55";"start"
"63";"1330051673";"2020-11-12 17:43:57";"start_xp"
"64";"27422569";"2020-11-12 17:44:05";"start"
"65";"885496079";"2020-11-12 17:44:05";"start"
"66";"446068181";"2020-11-12 17:44:06";"start_xp"
"67";"1388293072";"2020-11-12 17:44:12";"start_xp"
"68";"95033572";"2020-11-12 17:44:14";"start"
"69";"27422569";"2020-11-12 17:44:25";"start_xp"
"70";"861494755";"2020-11-12 17:44:26";"start"
"71";"1809866602";"2020-11-12 17:44:29";"start"
"72";"606139108";"2020-11-12 17:44:37";"start_xp"
"73";"885496079";"2020-11-12 17:44:37";"start_xp"
"74";"1013438570";"2020-11-12 17:44:39";"start"
"75";"700864336";"2020-11-12 17:44:42";"start_xp"
"76";"861494755";"2020-11-12 17:45:04";"start_xp"
"77";"690076560";"2020-11-12 17:45:09";"start_xp"
"78";"2022596241";"2020-11-12 17:45:22";"start_xp"
"79";"1013438570";"2020-11-12 17:45:24";"start_xp"
"80";"1353195825";"2020-11-12 17:45:31";"start"
"81";"1809866602";"2020-11-12 17:45:31";"start_xp"
"82";"1112999232";"2020-11-12 17:45:46";"start"
"83";"1112999232";"2020-11-12 17:45:59";"start_xp"
"84";"105699635";"2020-11-12 17:46:02";"start"
"85";"189073686";"2020-11-12 17:46:25";"start"
"86";"1342805481";"2020-11-12 17:46:30";"start"
"87";"105699635";"2020-11-12 17:46:44";"start_xp"
"88";"1342805481";"2020-11-12 17:47:19";"start_xp"
"89";"1353195825";"2020-11-12 17:47:29";"start_xp"
"90";"477596433";"2020-11-12 17:47:51";"start"
"91";"154798071";"2020-11-12 17:48:12";"start"
"92";"1310242518";"2020-11-12 17:48:42";"start"
"93";"189073686";"2020-11-12 17:48:59";"start_xp"
"94";"154798071";"2020-11-12 17:49:19";"start_xp"
"95";"1590379412";"2020-11-12 17:49:35";"start"
"96";"1763752122";"2020-11-12 17:49:42";"start"
"97";"1310242518";"2020-11-12 17:49:54";"start_xp"
"98";"336096188";"2020-11-12 17:49:59";"start"
"99";"336096188";"2020-11-12 17:50:05";"start_xp"
"100";"95033572";"2020-11-12 17:50:19";"start_xp"
"101";"1590379412";"2020-11-12 17:50:22";"start_xp"
"102";"1388293072";"2020-11-12 17:50:37";"questions"
"103";"1763752122";"2020-11-12 17:51:24";"start_xp"
"104";"1388293072";"2020-11-12 17:51:27";"finish"
"105";"75123913";"2020-11-12 17:51:37";"start"
"106";"2088452119";"2020-11-12 17:51:48";"questions"
"107";"75123913";"2020-11-12 17:51:52";"start_xp"
"108";"282483610";"2020-11-12 17:51:52";"start"
"109";"1112999232";"2020-11-12 17:52:01";"questions"
"110";"282483610";"2020-11-12 17:52:03";"start_xp"
"111";"1277634284";"2020-11-12 17:52:15";"questions"
"112";"2129848755";"2020-11-12 17:52:24";"start"
"113";"1112999232";"2020-11-12 17:52:29";"finish"
"114";"1524636413";"2020-11-12 17:52:36";"questions"
"115";"448313936";"2020-11-12 17:52:39";"start"
"116";"889482468";"2020-11-12 17:52:42";"start"
"117";"118553089";"2020-11-12 17:52:54";"start"
"118";"1322430074";"2020-11-12 17:53:01";"questions"
"119";"477596433";"2020-11-12 17:53:03";"start_xp"
"120";"241400601";"2020-11-12 17:53:09";"questions"
"121";"2088452119";"2020-11-12 17:53:17";"finish"
"122";"241400601";"2020-11-12 17:53:55";"finish"
"123";"118553089";"2020-11-12 17:54:10";"start_xp"
"124";"1322430074";"2020-11-12 17:54:35";"finish"
"125";"435554713";"2020-11-12 17:54:38";"start"
"126";"1277634284";"2020-11-12 17:54:55";"finish"
"127";"885496079";"2020-11-12 17:55:32";"questions"
"128";"330672611";"2020-11-12 17:55:35";"questions"
"129";"2129848755";"2020-11-12 17:55:37";"start_xp"
"130";"2038448360";"2020-11-12 17:55:38";"start"
"131";"435554713";"2020-11-12 17:55:48";"start_xp"
"132";"448313936";"2020-11-12 17:55:59";"start_xp"
"133";"885496079";"2020-11-12 17:56:44";"finish"
"134";"1330051673";"2020-11-12 17:56:48";"questions"
"135";"1887205521";"2020-11-12 17:56:49";"start"
"136";"2038448360";"2020-11-12 17:56:54";"start_xp"
"137";"330672611";"2020-11-12 17:56:59";"finish"
"138";"27422569";"2020-11-12 17:57:04";"questions"
"139";"1824995322";"2020-11-12 17:57:13";"questions"
"140";"1887205521";"2020-11-12 17:57:21";"start_xp"
"141";"1330051673";"2020-11-12 17:57:48";"finish"
"142";"2020312579";"2020-11-12 17:57:50";"questions"
"143";"27422569";"2020-11-12 17:57:56";"finish"
"144";"105699635";"2020-11-12 17:58:06";"questions"
"145";"1824995322";"2020-11-12 17:58:18";"finish"
"146";"889482468";"2020-11-12 17:58:40";"start_xp"
"147";"1809866602";"2020-11-12 17:58:58";"questions"
"148";"105699635";"2020-11-12 17:59:00";"finish"
"149";"939164309";"2020-11-12 17:59:03";"questions"
"150";"2020312579";"2020-11-12 17:59:19";"finish"
"151";"1760090466";"2020-11-12 17:59:20";"start"
"152";"1809866602";"2020-11-12 18:00:02";"finish"
"153";"1760090466";"2020-11-12 18:00:06";"start_xp"
"154";"1802320933";"2020-11-12 18:00:07";"start"
"155";"2130956537";"2020-11-12 18:00:11";"start"
"156";"1596393683";"2020-11-12 18:00:28";"questions"
"157";"939164309";"2020-11-12 18:00:29";"finish"
"158";"1013438570";"2020-11-12 18:00:30";"questions"
"159";"1802320933";"2020-11-12 18:00:49";"start_xp"
"160";"1342805481";"2020-11-12 18:00:59";"questions"
"161";"1013438570";"2020-11-12 18:01:30";"finish"
"162";"1596393683";"2020-11-12 18:01:36";"finish"
"163";"2130956537";"2020-11-12 18:01:48";"start_xp"
"164";"1310242518";"2020-11-12 18:02:30";"questions"
"165";"1342805481";"2020-11-12 18:02:34";"finish"
"166";"446068181";"2020-11-12 18:03:03";"questions"
"167";"981769570";"2020-11-12 18:03:16";"questions"
"168";"1310242518";"2020-11-12 18:04:02";"finish"
"169";"446068181";"2020-11-12 18:04:09";"finish"
"170";"2133789454";"2020-11-12 18:04:48";"start"
"171";"1908593570";"2020-11-12 18:05:16";"questions"
"172";"690076560";"2020-11-12 18:05:21";"questions"
"173";"981769570";"2020-11-12 18:05:22";"finish"
"174";"170680903";"2020-11-12 18:05:42";"start"
"175";"170680903";"2020-11-12 18:06:19";"start_xp"
"176";"1353195825";"2020-11-12 18:06:22";"questions"
"177";"1590379412";"2020-11-12 18:06:35";"questions"
"178";"1908593570";"2020-11-12 18:06:41";"finish"
"179";"690076560";"2020-11-12 18:06:47";"finish"
"180";"52785518";"2020-11-12 18:06:57";"questions"
"181";"154798071";"2020-11-12 18:07:13";"questions"
"182";"606139108";"2020-11-12 18:07:23";"questions"
"183";"1353195825";"2020-11-12 18:07:34";"finish"
"184";"1763752122";"2020-11-12 18:07:55";"questions"
"185";"2003673174";"2020-11-12 18:07:56";"start"
"186";"1590379412";"2020-11-12 18:08:03";"finish"
"187";"477596433";"2020-11-12 18:08:10";"questions"
"188";"859843116";"2020-11-12 18:08:23";"start"
"189";"52785518";"2020-11-12 18:08:34";"finish"
"190";"2133789454";"2020-11-12 18:08:36";"start_xp"
"191";"861494755";"2020-11-12 18:08:44";"questions"
"192";"861494755";"2020-11-12 18:09:46";"finish"
"193";"154798071";"2020-11-12 18:09:53";"finish"
"194";"2003673174";"2020-11-12 18:09:58";"start_xp"
"195";"477596433";"2020-11-12 18:10:20";"finish"
"196";"859843116";"2020-11-12 18:10:22";"start_xp"
"197";"1763752122";"2020-11-12 18:10:24";"finish"
"198";"1132445318";"2020-11-12 18:10:34";"start"
"199";"1132445318";"2020-11-12 18:11:41";"start_xp"
"200";"1060915394";"2020-11-12 18:11:45";"start"
"201";"606139108";"2020-11-12 18:11:48";"finish"
"202";"1060915394";"2020-11-12 18:11:50";"start_xp"
"203";"154907357";"2020-11-12 18:12:21";"start"
"204";"154907357";"2020-11-12 18:12:40";"start_xp"
"205";"295187814";"2020-11-12 18:13:01";"start"
"206";"152321048";"2020-11-12 18:13:41";"start"
"207";"440724853";"2020-11-12 18:13:51";"start"
"208";"152321048";"2020-11-12 18:13:53";"start_xp"
"209";"435554713";"2020-11-12 18:13:54";"questions"
"210";"385658236";"2020-11-12 18:14:05";"start"
"211";"440724853";"2020-11-12 18:14:14";"start_xp"
"212";"295187814";"2020-11-12 18:14:37";"start_xp"
"213";"435554713";"2020-11-12 18:14:55";"finish"
"214";"1802320933";"2020-11-12 18:16:22";"questions"
"215";"385658236";"2020-11-12 18:16:25";"start_xp"
"216";"118553089";"2020-11-12 18:16:30";"questions"
"217";"2038448360";"2020-11-12 18:16:47";"questions"
"218";"1802320933";"2020-11-12 18:17:24";"finish"
"219";"118553089";"2020-11-12 18:17:58";"finish"
"220";"2038448360";"2020-11-12 18:18:45";"finish"
"221";"1802175855";"2020-11-12 18:19:22";"questions"
"222";"889482468";"2020-11-12 18:19:37";"questions"
"223";"869736966";"2020-11-12 18:20:41";"start"
"224";"1802175855";"2020-11-12 18:21:07";"finish"
"225";"2018030585";"2020-11-12 18:21:30";"start"
"226";"889482468";"2020-11-12 18:21:32";"finish"
"227";"170680903";"2020-11-12 18:21:45";"questions"
"228";"869736966";"2020-11-12 18:21:52";"start_xp"
"229";"2018030585";"2020-11-12 18:21:55";"start_xp"
"230";"2133789454";"2020-11-12 18:22:05";"questions"
"231";"154907357";"2020-11-12 18:22:11";"questions"
"232";"1088481494";"2020-11-12 18:22:42";"start"
"233";"1738849329";"2020-11-12 18:22:47";"start"
"234";"170680903";"2020-11-12 18:22:52";"finish"
"235";"1738849329";"2020-11-12 18:23:04";"start_xp"
"236";"1596891612";"2020-11-12 18:23:38";"start"
"237";"1365663075";"2020-11-12 18:23:41";"start"
"238";"2133789454";"2020-11-12 18:23:43";"finish"
"239";"154907357";"2020-11-12 18:23:48";"finish"
"240";"1060915394";"2020-11-12 18:23:51";"questions"
"241";"1131310964";"2020-11-12 18:23:51";"start"
"242";"1088481494";"2020-11-12 18:23:57";"start_xp"
"243";"1596891612";"2020-11-12 18:24:18";"start_xp"
"244";"1365663075";"2020-11-12 18:24:21";"start_xp"
"245";"1880974009";"2020-11-12 18:24:26";"start"
"246";"1027656989";"2020-11-12 18:24:31";"start"
"247";"1131310964";"2020-11-12 18:24:46";"start_xp"
"248";"1132445318";"2020-11-12 18:24:51";"questions"
"249";"1060915394";"2020-11-12 18:25:01";"finish"
"250";"1027656989";"2020-11-12 18:25:07";"start_xp"
"251";"1592297079";"2020-11-12 18:25:11";"start"
"252";"1592297079";"2020-11-12 18:25:46";"start_xp"
"253";"1132445318";"2020-11-12 18:26:16";"finish"
"254";"152321048";"2020-11-12 18:26:26";"questions"
"255";"1880974009";"2020-11-12 18:26:47";"start_xp"
"256";"534040752";"2020-11-12 18:26:52";"start"
"257";"534040752";"2020-11-12 18:27:41";"start_xp"
"258";"152321048";"2020-11-12 18:27:51";"finish"
"259";"749281076";"2020-11-12 18:29:01";"start"
"260";"713019785";"2020-11-12 18:29:36";"start"
"261";"1676686583";"2020-11-12 18:29:40";"start"
"262";"713019785";"2020-11-12 18:29:54";"start_xp"
"263";"391144137";"2020-11-12 18:30:41";"start"
"264";"1738849329";"2020-11-12 18:30:47";"questions"
"265";"1676686583";"2020-11-12 18:31:08";"start_xp"
"266";"2007689268";"2020-11-12 18:31:12";"start"
"267";"391144137";"2020-11-12 18:31:14";"start_xp"
"268";"2007689268";"2020-11-12 18:32:07";"start_xp"
"269";"2130956537";"2020-11-12 18:32:09";"questions"
"270";"1738849329";"2020-11-12 18:32:16";"finish"
"271";"451205888";"2020-11-12 18:32:25";"start"
"272";"1953023457";"2020-11-12 18:32:26";"start"
"273";"756135611";"2020-11-12 18:32:27";"start"
"274";"33837354";"2020-11-12 18:32:38";"start"
"275";"756135611";"2020-11-12 18:32:51";"start_xp"
"276";"859843116";"2020-11-12 18:33:30";"questions"
"277";"2031845236";"2020-11-12 18:33:44";"start"
"278";"33837354";"2020-11-12 18:33:44";"start_xp"
"279";"2130956537";"2020-11-12 18:34:03";"finish"
"280";"451205888";"2020-11-12 18:34:12";"start_xp"
"281";"1953023457";"2020-11-12 18:34:36";"start_xp"
"282";"1887205521";"2020-11-12 18:34:38";"questions"
"283";"2031845236";"2020-11-12 18:35:35";"start_xp"
"284";"1887205521";"2020-11-12 18:35:52";"finish"
"285";"295187814";"2020-11-12 18:36:01";"questions"
"286";"859843116";"2020-11-12 18:36:36";"finish"
"287";"247548068";"2020-11-12 18:36:47";"start"
"288";"247548068";"2020-11-12 18:36:57";"start_xp"
"289";"440724853";"2020-11-12 18:37:15";"questions"
"290";"295187814";"2020-11-12 18:37:25";"finish"
"291";"440724853";"2020-11-12 18:38:05";"finish"
"292";"2022596241";"2020-11-12 18:38:26";"questions"
"293";"1596891612";"2020-11-12 18:38:32";"questions"
"294";"1131310964";"2020-11-12 18:38:40";"questions"
"295";"1596891612";"2020-11-12 18:39:19";"finish"
"296";"448313936";"2020-11-12 18:39:20";"questions"
"297";"2018030585";"2020-11-12 18:39:25";"questions"
"298";"1533823528";"2020-11-12 18:39:26";"start"
"299";"1131310964";"2020-11-12 18:39:42";"finish"
"300";"1027656989";"2020-11-12 18:40:02";"questions"
"301";"578086243";"2020-11-12 18:40:04";"start"
"302";"2018030585";"2020-11-12 18:40:56";"finish"
"303";"534040752";"2020-11-12 18:41:15";"questions"
"304";"1027656989";"2020-11-12 18:41:26";"finish"
"305";"448313936";"2020-11-12 18:41:35";"finish"
"306";"391144137";"2020-11-12 18:41:47";"questions"
"307";"1533823528";"2020-11-12 18:42:08";"start_xp"
"308";"869736966";"2020-11-12 18:42:24";"questions"
"309";"2022596241";"2020-11-12 18:42:33";"finish"
"310";"534040752";"2020-11-12 18:42:33";"finish"
"311";"391144137";"2020-11-12 18:42:42";"finish"
"312";"1223938827";"2020-11-12 18:42:56";"start"
"313";"1088481494";"2020-11-12 18:43:13";"questions"
"314";"756135611";"2020-11-12 18:43:21";"questions"
"315";"578086243";"2020-11-12 18:43:22";"start_xp"
"316";"869736966";"2020-11-12 18:43:51";"finish"
"317";"756135611";"2020-11-12 18:44:12";"finish"
"318";"2003673174";"2020-11-12 18:44:45";"questions"
"319";"262300359";"2020-11-12 18:44:47";"questions"
"320";"247548068";"2020-11-12 18:44:50";"questions"
"321";"1088481494";"2020-11-12 18:45:06";"finish"
"322";"247548068";"2020-11-12 18:45:28";"finish"
"323";"1223938827";"2020-11-12 18:45:37";"start_xp"
"324";"2003673174";"2020-11-12 18:45:59";"finish"
"325";"262300359";"2020-11-12 18:46:55";"finish"
"326";"1013247770";"2020-11-12 18:47:59";"start"
"327";"33837354";"2020-11-12 18:48:03";"questions"
"328";"1013247770";"2020-11-12 18:49:11";"start_xp"
"329";"33837354";"2020-11-12 18:49:52";"finish"
"330";"1676686583";"2020-11-12 18:50:25";"questions"
"331";"451205888";"2020-11-12 18:51:11";"questions"
"332";"2031845236";"2020-11-12 18:51:30";"questions"
"333";"2031845236";"2020-11-12 18:52:31";"finish"
"334";"451205888";"2020-11-12 18:52:46";"finish"
"335";"1676686583";"2020-11-12 18:52:47";"finish"
"336";"2007689268";"2020-11-12 18:56:00";"questions"
"337";"1838316730";"2020-11-12 18:56:17";"questions"
"338";"1838316730";"2020-11-12 18:57:35";"finish"
"339";"2007689268";"2020-11-12 18:57:35";"finish"
"340";"385658236";"2020-11-12 19:00:33";"questions"
"341";"1365663075";"2020-11-12 19:00:44";"questions"
"342";"713019785";"2020-11-12 19:01:08";"questions"
"343";"385658236";"2020-11-12 19:01:57";"finish"
"344";"1365663075";"2020-11-12 19:02:05";"finish"
"345";"713019785";"2020-11-12 19:02:25";"finish"
"346";"1013247770";"2020-11-12 19:02:49";"questions"
"347";"1013247770";"2020-11-12 19:03:58";"finish"
"348";"1880974009";"2020-11-12 19:04:07";"questions"
"349";"189073686";"2020-11-12 19:04:48";"questions"
"350";"1953023457";"2020-11-12 19:05:41";"questions"
"351";"1592297079";"2020-11-12 19:05:55";"questions"
"352";"1880974009";"2020-11-12 19:06:01";"finish"
"353";"189073686";"2020-11-12 19:06:34";"finish"
"354";"1592297079";"2020-11-12 19:06:47";"finish"
"355";"1953023457";"2020-11-12 19:07:34";"finish"
"356";"1223938827";"2020-11-12 19:07:41";"questions"
"357";"1223938827";"2020-11-12 19:08:50";"finish"
"358";"700864336";"2020-11-12 19:15:04";"questions"
"359";"700864336";"2020-11-12 19:18:22";"finish"
"360";"2129848755";"2020-11-12 19:22:10";"questions"
"361";"2129848755";"2020-11-12 19:23:59";"finish"
"362";"578086243";"2020-11-12 19:42:23";"questions"
"363";"20065966";"2020-11-12 19:45:44";"start"
"364";"578086243";"2020-11-12 19:45:55";"finish"
"365";"20065966";"2020-11-12 19:46:09";"start_xp"
"366";"853199975";"2020-11-12 19:52:01";"start"
"367";"2136473053";"2020-11-12 19:52:12";"start"
"368";"2136473053";"2020-11-12 19:53:14";"start_xp"
"369";"853199975";"2020-11-12 19:53:34";"start_xp"
"370";"95033572";"2020-11-12 19:56:28";"questions"
"371";"1068775283";"2020-11-12 20:05:05";"start"
"372";"1068775283";"2020-11-12 20:06:36";"start_xp"
"373";"2136473053";"2020-11-12 20:08:22";"questions"
"374";"174180005";"2020-11-12 20:09:00";"start"
"375";"95033572";"2020-11-12 20:09:38";"finish"
"376";"174180005";"2020-11-12 20:09:38";"start_xp"
"377";"377291999";"2020-11-12 20:09:40";"start"
"378";"377291999";"2020-11-12 20:10:06";"start_xp"
"379";"2136473053";"2020-11-12 20:10:58";"finish"
"380";"864378416";"2020-11-12 20:12:24";"start"
"381";"864378416";"2020-11-12 20:13:26";"start_xp"
"382";"827531841";"2020-11-12 20:16:51";"start"
"383";"1610646940";"2020-11-12 20:17:37";"start"
"384";"1068775283";"2020-11-12 20:18:36";"questions"
"385";"1610646940";"2020-11-12 20:18:43";"start_xp"
"386";"827531841";"2020-11-12 20:19:22";"start_xp"
"387";"1068775283";"2020-11-12 20:19:33";"finish"
"388";"1292241509";"2020-11-12 20:20:17";"start"
"389";"1319437273";"2020-11-12 20:21:00";"start"
"390";"1292241509";"2020-11-12 20:21:20";"start_xp"
"391";"864378416";"2020-11-12 20:22:00";"questions"
"392";"1319437273";"2020-11-12 20:22:38";"start_xp"
"393";"20065966";"2020-11-12 20:23:08";"questions"
"394";"20065966";"2020-11-12 20:24:38";"finish"
"395";"864378416";"2020-11-12 20:24:40";"finish"
"396";"377291999";"2020-11-12 20:29:12";"questions"
"397";"377291999";"2020-11-12 20:32:05";"finish"
"398";"1292241509";"2020-11-12 20:35:49";"questions"
"399";"1168600977";"2020-11-12 20:37:38";"start"
"400";"1292241509";"2020-11-12 20:37:38";"finish"
"401";"1168600977";"2020-11-12 20:38:12";"start_xp"
"402";"1610646940";"2020-11-12 20:38:46";"questions"
"403";"853199975";"2020-11-12 20:42:16";"questions"
"404";"174180005";"2020-11-12 20:42:45";"questions"
"405";"1610646940";"2020-11-12 20:42:48";"finish"
"406";"1703035193";"2020-11-12 20:42:54";"start"
"407";"1703035193";"2020-11-12 20:43:16";"start_xp"
"408";"174180005";"2020-11-12 20:44:11";"finish"
"409";"992312697";"2020-11-12 20:45:30";"start"
"410";"853199975";"2020-11-12 20:46:03";"finish"
"411";"992312697";"2020-11-12 20:47:35";"start_xp"
"412";"1168600977";"2020-11-12 20:47:46";"questions"
"413";"1168600977";"2020-11-12 20:48:44";"finish"
"414";"1703035193";"2020-11-12 20:54:49";"questions"
"415";"1703035193";"2020-11-12 20:55:57";"finish"
"416";"1319437273";"2020-11-12 20:56:09";"questions"
"417";"1319437273";"2020-11-12 20:57:11";"finish"
"418";"1563071953";"2020-11-12 20:59:16";"start"
"419";"1563071953";"2020-11-12 20:59:20";"start_xp"
"420";"1427687814";"2020-11-12 21:05:40";"start"
"421";"1427687814";"2020-11-12 21:08:16";"start_xp"
"422";"827531841";"2020-11-12 21:13:27";"questions"
"423";"827531841";"2020-11-12 21:16:32";"finish"
"424";"1563071953";"2020-11-12 21:20:25";"questions"
"425";"1563071953";"2020-11-12 21:21:08";"finish"
"426";"992312697";"2020-11-12 21:22:50";"questions"
"427";"992312697";"2020-11-12 21:24:40";"finish"
"428";"1427687814";"2020-11-12 21:36:07";"questions"
"429";"1427687814";"2020-11-12 21:39:07";"finish"
"430";"2022972344";"2020-11-12 21:56:13";"start"
"431";"2022972344";"2020-11-12 21:58:50";"start_xp"
"432";"310785731";"2020-11-12 22:14:38";"start"
"433";"310785731";"2020-11-12 22:15:29";"start_xp"
"434";"310785731";"2020-11-12 22:27:35";"questions"
"435";"310785731";"2020-11-12 22:28:40";"finish"
"436";"2022972344";"2020-11-12 22:45:21";"questions"
"437";"2022972344";"2020-11-12 22:46:58";"finish"
"438";"1533823528";"2020-11-13 00:58:30";"questions"
"439";"1533823528";"2020-11-13 01:00:27";"finish"
